{
    "prepare_queue": {
        "installed": [],
        "uninstalled": []
    },
    "config_munge": {
        "files": {}
    },
    "installed_plugins": {
        "cordova-plugin-apiai": {
            "PACKAGE_NAME": "io.cordova.eldernav"
        },
        "cordova-plugin-console": {
            "PACKAGE_NAME": "io.cordova.eldernav"
        },
        "cordova-plugin-device": {
            "PACKAGE_NAME": "io.cordova.eldernav"
        },
        "cordova-plugin-geolocation": {
            "PACKAGE_NAME": "io.cordova.eldernav"
        },
        "cordova-plugin-inappbrowser": {
            "PACKAGE_NAME": "io.cordova.eldernav"
        },
        "cordova-plugin-mauron85-background-geolocation": {
            "PACKAGE_NAME": "io.cordova.eldernav"
        },
        "cordova-plugin-splashscreen": {
            "PACKAGE_NAME": "io.cordova.eldernav"
        },
        "cordova-plugin-tts-notification": {
            "PACKAGE_NAME": "io.cordova.eldernav"
        },
        "cordova-plugin-whitelist": {
            "PACKAGE_NAME": "io.cordova.eldernav"
        }
    },
    "dependent_plugins": {
        "cordova-plugin-app-event": {
            "PACKAGE_NAME": "io.cordova.eldernav"
        },
        "cordova-plugin-compat": {
            "PACKAGE_NAME": "io.cordova.eldernav"
        },
        "plugin.http.request": {
            "PACKAGE_NAME": "io.cordova.eldernav"
        }
    }
}